Applied Research: Intro Statistics with R
…
library(ggplot2)

Understanding a data frame

First thing first, we need to make sure that we correctly imported the dataset. Use the View() to look the entire dataframe in new windows.

View(mydat)

Use the code print() to print the entire dataframe in the console

print(mydat) # printing all dataset with NA

## # A tibble: 69 x 8
##    group tutor  year   age length `favourite pet:~ `do you like ga~
##    <dbl> <chr> <dbl> <dbl>  <dbl>            <dbl>            <dbl>
##  1     1 unkn~  2019    19    171                2              -99
##  2     1 unkn~  2019    23    173                2                8
##  3     1 unkn~  2019    24    165                2              -99
##  4     2 unkn~  2019    18    170                2              -99
##  5     2 unkn~  2019    20    160                2                7
##  6     2 unkn~  2019    26    170                2                8
##  7     2 unkn~  2019    27    180                2              -99
##  8     2 unkn~  2019    33    182                2              -99
##  9     3 unkn~  2019    18    157                1              -99
## 10     3 unkn~  2019    19    153                1                3
## # ... with 59 more rows, and 1 more variable: `do you like Lord of the Rings:
## #   1(not at all) - 10 (best thing in the world)` <dbl>
…
Some variables are not in the right format, for instance favourite pet as considering numericinstead of categorical. Indeed, it might be worth to convert this variable into a dummy one.

It is therefore necessary to wrangle the data, and clean it a little bit! We will do this in the next section Data cleaning, which consists of three sub-sections.

Data cleaning

Perform some modification to the dataset in order to tune it and get ready for further data analysis.

N.B.: It is a good practice to always save the original dataset before starting to make further steps. Please type the following:

mydat_original <- mydat
print(mydat1)

## # A tibble: 74 x 8
##    group tutor  year   age length `favourite pet:~ `do you like ga~
##    <dbl> <chr> <dbl> <dbl>  <dbl>            <dbl>            <dbl>
##  1     1 unkn~  2019    19    171                2              -99
##  2     1 unkn~  2019    23    173                2                8
##  3     1 unkn~  2019    24    165                2              -99
##  4     2 unkn~  2019    18    170                2              -99
##  5     2 unkn~  2019    20    160                2                7
##  6     2 unkn~  2019    26    170                2                8
##  7     2 unkn~  2019    27    180                2              -99
##  8     2 unkn~  2019    33    182                2              -99
##  9     3 unkn~  2019    18    157                1              -99
## 10     3 unkn~  2019    19    153                1                3
## # ... with 64 more rows, and 1 more variable: `do you like Lord of the Rings:
## #   1(not at all) - 10 (best thing in the world)` <dbl>
…
